…
1.  Review the data, outputting the results of the variable from the
    prior step. In the data set, I can see:

- What appears to be a unique value for each record in the data,
- When the shooting took place,
- Where the shooting took place (sometimes this data is missing),
- What general values were captured regarding the shooting (perpetrator
  information as well as victim information), and,
- Whether or not the shooting resulted in a murder.

``` r
shootings
```

    ## # A tibble: 28,562 × 21
    ##    INCIDENT_KEY OCCUR_DATE OCCUR_TIME BORO      LOC_OF_OCCUR_DESC PRECINCT
    ##           <dbl> <chr>      <time>     <chr>     <chr>                <dbl>
    ##  1    244608249 05/05/2022 00:10      MANHATTAN INSIDE                  14
    ##  2    247542571 07/04/2022 22:20      BRONX     OUTSIDE                 48
    ##  3     84967535 05/27/2012 19:35      QUEENS    <NA>                   103
    ##  4    202853370 09/24/2019 21:00      BRONX     <NA>                    42
    ##  5     27078636 02/25/2007 21:00      BROOKLYN  <NA>                    83
    ##  6    230311078 07/01/2021 23:07      MANHATTAN <NA>                    23
    ##  7    229224142 06/07/2021 19:55      QUEENS    <NA>                   113
    ##  8    231246224 07/22/2021 01:47      BROOKLYN  <NA>                    77
    ##  9    228559720 05/22/2021 18:39      BRONX     <NA>                    48
    ## 10    238210279 12/22/2021 23:17      BRONX     <NA>                    49
    ## # ℹ 28,552 more rows
    ## # ℹ 15 more variables: JURISDICTION_CODE <dbl>, LOC_CLASSFCTN_DESC <chr>,
    ## #   LOCATION_DESC <chr>, STATISTICAL_MURDER_FLAG <lgl>, PERP_AGE_GROUP <chr>,
    ## #   PERP_SEX <chr>, PERP_RACE <chr>, VIC_AGE_GROUP <chr>, VIC_SEX <chr>,
    ## #   VIC_RACE <chr>, X_COORD_CD <dbl>, Y_COORD_CD <dbl>, Latitude <dbl>,
    ## #   Longitude <dbl>, Lon_Lat <chr>
…
shootings
```

    ## # A tibble: 28,562 × 9
    ##    OccurrenceDate OccurrenceTime Borough   PRECINCT Murder PerpetratorRace
    ##    <date>         <time>         <chr>        <dbl> <lgl>  <chr>          
    ##  1 2022-05-05     00:10          MANHATTAN       14 TRUE   BLACK          
    ##  2 2022-07-04     22:20          BRONX           48 TRUE   UNKNOWN        
    ##  3 2012-05-27     19:35          QUEENS         103 FALSE  UNKNOWN        
    ##  4 2019-09-24     21:00          BRONX           42 FALSE  UNKNOWN        
    ##  5 2007-02-25     21:00          BROOKLYN        83 FALSE  BLACK          
    ##  6 2021-07-01     23:07          MANHATTAN       23 FALSE  UNKNOWN        
    ##  7 2021-06-07     19:55          QUEENS         113 TRUE   UNKNOWN        
    ##  8 2021-07-22     01:47          BROOKLYN        77 FALSE  UNKNOWN        
    ##  9 2021-05-22     18:39          BRONX           48 FALSE  UNKNOWN        
    ## 10 2021-12-22     23:17          BRONX           49 TRUE   WHITE HISPANIC 
    ## # ℹ 28,552 more rows
    ## # ℹ 3 more variables: VIC_AGE_GROUP <chr>, VictimSex <chr>, VictimRace <chr>
…
7.  Review the data

``` r
shootings %>%
  select(OccurrenceDate, Murders, Shootings, YearQuarter, Quarter, Year, PerpetratorRace, PerpetratorRaceColor, YearMonth)
```

    ## # A tibble: 28,562 × 9
    ##    OccurrenceDate Murders Shootings YearQuarter Quarter  Year PerpetratorRace
    ##    <date>           <dbl>     <dbl>       <dbl>   <int> <dbl> <chr>          
    ##  1 2022-05-05           1         1       2022.       2  2022 BLACK          
    ##  2 2022-07-04           1         1       2022.       3  2022 UNKNOWN        
    ##  3 2012-05-27           0         1       2012.       2  2012 UNKNOWN        
    ##  4 2019-09-24           0         1       2019.       3  2019 UNKNOWN        
    ##  5 2007-02-25           0         1       2007.       1  2007 BLACK          
    ##  6 2021-07-01           0         1       2021.       3  2021 UNKNOWN        
    ##  7 2021-06-07           1         1       2021.       2  2021 UNKNOWN        
    ##  8 2021-07-22           0         1       2021.       3  2021 UNKNOWN        
    ##  9 2021-05-22           0         1       2021.       2  2021 UNKNOWN        
    ## 10 2021-12-22           1         1       2021.       4  2021 WHITE HISPANIC 
    ## # ℹ 28,552 more rows
    ## # ℹ 2 more variables: PerpetratorRaceColor <chr>, YearMonth <dbl>
…
